{
  "project_info": {
    "project_number": "944912198536",
    "firebase_url": "https://protoapp-b886b.firebaseio.com",
    "project_id": "protoapp-b886b",
    "storage_bucket": "protoapp-b886b.appspot.com"
  },
  "client": [
    {
      "client_info": {
        "mobilesdk_app_id": "1:944912198536:android:7a9fe0cad8d714945ee83d",
        "android_client_info": {
          "package_name": "com.proto.app"
        }
      },
      "oauth_client": [
        {
          "client_id": "944912198536-1a5umlp95tnr07opfd61a2an8hb55t5t.apps.googleusercontent.com",
          "client_type": 3
        }
      ],
      "api_key": [
        {
          "current_key": "AIzaSyA_DjsBDtFW1UxExNbbK58XKpfEvtm711E"
        }
      ],
      "services": {
        "appinvite_service": {
          "other_platform_oauth_client": [
            {
              "client_id": "944912198536-1a5umlp95tnr07opfd61a2an8hb55t5t.apps.googleusercontent.com",
              "client_type": 3
            }
          ]
        }
      }
    }
  ],
  "configuration_version": "1"
}